2016-02-07
Octree, time of step to number of particles (error with 15000):
(2, [0.0006176677404665479, 0.00027243296305338543, 0.000254060707840265])
(5, [0.0007813537822050206, 0.0007436883215810739, 0.0007415893031101601])
(10, [0.0018338829863305186, 0.0017970029045553768, 0.0016542789982814416])
(20, [0.0033969832401649623, 0.0033673725876153682, 0.003607960308299345])
(30, [0.005514294493432138, 0.005504037819656671, 0.005766761069204293])
(40, [0.009734490338493796, 0.008191309723199583, 0.007815356348075118])
(60, [0.012205722285251991, 0.012154471640493356, 0.012265607422473384])
(80, [0.016807939492019953, 0.017554451437557444, 0.018546099756278245])
(100, [0.021925804661769493, 0.02108143357669606, 0.021618099773631376])
(150, [0.03206586370281145, 0.03290031470504461, 0.03206682205200195])
(200, [0.04447541049882477, 0.04401492605022356, 0.04446998296999464])
(300, [0.10272678674436082, 0.1440125867432239, 0.12429586578817929])
(450, [0.1355156057021197, 0.11934147161595962, 0.11143751237906661])
(600, [0.15113123257954916, 0.1488527456919352, 0.14969780398350135])
(800, [0.20090380369448194, 0.19918107986450195, 0.21193166807586072])
(1000, [0.26719217674404966, 0.26927870395136816, 0.2553692191254859])
(2000, [0.5273937664779962, 0.531160410712747, 0.5355534319784127])
(3000, [0.8254062334696451, 0.835887212379306, 0.8249822551128911])
(5000, [1.4450665081248564, 1.4423517245872348, 1.2764460086822509])
(7000, [2.0381629794251683, 1.9927480561392648, 2.0763034119325527])
(10000, [2.956037684982898, 2.964837119692848, 2.9194050011811434])
(15000, [4.60560482156043, 4.542706926663716, 1.2180390357971191])

Octree, time of step to number of particles
(100, [0.019929474050348454, 0.020959095521406693, 0.020941170779141514, 0.022079641168767757, 0.02003444324840199])
(500, [0.12387618151578036, 0.1271748109297319, 0.13597028905695135, 0.12642608989368787, 0.13291937654668634])
(1000, [0.2507807341488925, 0.2714941718361594, 0.26153462583368475, 0.25620280612598767, 0.2495195432142778])
(2000, [0.5443453572013162, 0.5293484601107511, 0.5322384617545388, 0.5414407253265381, 0.5165287147868763])
(3000, [0.8010509230873801, 0.8023663650859486, 0.8071860833601519, 0.8090224699540571, 0.79746244170449])
(4000, [1.0909139893271707, 1.0940863652662798, 1.0880199128931218, 1.092352737079967, 1.1168098016218706])
(5000, [1.4037099968303333, 1.3867009119554, 1.3790748119354248, 1.3882348103956743, 1.39914118159901])
(6000, [1.6923999136144465, 1.683276284824718, 1.6851944706656716, 1.6805537180467085, 1.6768871654163708])
(7000, [1.9716606356880881, 1.958260644565929, 1.964846914464777, 1.9654779867692427, 1.9642901854081587])
(8000, [2.3580843752080742, 2.2891888184980913, 2.2561534534801138, 2.254609541459517, 2.255233266136863])
(9000, [2.5618702715093438, 2.57351938160983, 2.555555907162753, 2.553506461056796, 2.5600032806396484])
(10000, [2.852238828485662, 2.8475036187605425, 2.872269543734464, 2.8410416299646553, 2.8934840072285044])

